{
    "HDMMapViewController": 16,
    "SFPasswordRemoteViewController": 54,
    "UIAlertController": 8,
    "UIApplicationRotationFollowingControllerNoTouches": 29,
    "UICompatibilityInputViewController": 27,
    "UIInputWindowController": 7,
    "UIKeyboardHiddenViewController": 53,
    "UINavigationController": 43,
    "UISearchController": 33,
    "UISystemKeyboardDockController": 32,
    "_SFAppAutoFillPasswordViewController": 55,
    "_UIRemoteInputViewController": 72,
    "dmagxv.BaseFilterListViewController": 64,
    "dmagxv.BaseTabBarViewController": 2,
    "dmagxv.BaseTabSelectorPageViewController": 20,
    "dmagxv.BaseTabSelectorViewController": 19,
    "dmagxv.BlockEventDetailViewController": 35,
    "dmagxv.CatalogNavigationController": 23,
    "dmagxv.CatalogTableViewController": 25,
    "dmagxv.CatalogViewController": 24,
    "dmagxv.EventContainerViewController": 48,
    "dmagxv.EventDetailViewController": 68,
    "dmagxv.EventListViewController": 47,
    "dmagxv.EventPageViewController": 50,
    "dmagxv.EventSearchResultViewController": 49,
    "dmagxv.EventsViewController": 74,
    "dmagxv.ExhibitorContainerViewController": 9,
    "dmagxv.ExhibitorDetailMapViewController": 36,
    "dmagxv.ExhibitorDetailViewController": 42,
    "dmagxv.ExhibitorFilterViewController": 63,
    "dmagxv.ExhibitorListViewController": 10,
    "dmagxv.ExhibitorSearchResultViewController": 11,
    "dmagxv.ExhibitorsViewController": 39,
    "dmagxv.GlobalSearchResultViewController": 67,
    "dmagxv.HomeHighlightsViewController": 6,
    "dmagxv.HomeNavigationViewController": 4,
    "dmagxv.HomeProgramViewController": 3,
    "dmagxv.HomeViewController": 5,
    "dmagxv.MainMapFilterViewController": 46,
    "dmagxv.MainMapSearchResultViewController": 62,
    "dmagxv.MainMapViewController": 13,
    "dmagxv.MapNavigationController": 14,
    "dmagxv.MapSelectionListViewController": 15,
    "dmagxv.MyVenueBookmarkExportViewController": 44,
    "dmagxv.MyVenueBookmarkListViewController": 17,
    "dmagxv.MyVenueBookmarkMenuViewController": 52,
    "dmagxv.MyVenueDataProtectionViewController": 56,
    "dmagxv.MyVenueFilterViewController": 45,
    "dmagxv.MyVenueInitialSyncViewController": 21,
    "dmagxv.MyVenueLoginViewController": 22,
    "dmagxv.MyVenueNavigationController": 18,
    "dmagxv.MyVenueSettingsViewController": 51,
    "dmagxv.MyVenueStatisticsViewController": 30,
    "dmagxv.MyVenueTicketViewController": 37,
    "dmagxv.MyVenueTicketsViewController": 26,
    "dmagxv.MyVenueTourDetailViewController": 59,
    "dmagxv.MyVenueTourListViewController": 34,
    "dmagxv.MyVenueTourMapViewController": 61,
    "dmagxv.MyVenueTourMenuViewController": 58,
    "dmagxv.MyVenueTourNameViewController": 57,
    "dmagxv.MyVenueTourSelectViewController": 60,
    "dmagxv.NoteViewController": 69,
    "dmagxv.ProductCategoryDomainsViewController": 38,
    "dmagxv.ProductCategoryListViewController": 12,
    "dmagxv.ProductCategorySearchResultViewController": 41,
    "dmagxv.ProductDetailViewController": 65,
    "dmagxv.ProductsViewController": 40,
    "dmagxv.RoutingSearchResultViewController": 71,
    "dmagxv.RoutingSearchViewController": 70,
    "dmagxv.RoutingViewController": 66,
    "dmagxv.SpeakerContainerViewController": 75,
    "dmagxv.SpeakerDetailViewController": 73,
    "dmagxv.SpeakerListViewController": 77,
    "dmagxv.SpeakerSearchResultViewController": 76,
    "dmagxv.SplashscreenViewController": 1,
    "dmagxv.UpdateViewController": 31,
    "dmagxv.WebViewController": 28
}